<?xml version="1.0" encoding="utf-8"?>
<!-- Generator: Adobe Illustrator 15.1.0, SVG Export Plug-In . SVG Version: 6.00 Build 0)  -->
<!DOCTYPE svg PUBLIC "-//W3C//DTD SVG 1.1//EN" "http://www.w3.org/Graphics/SVG/1.1/DTD/svg11.dtd">
<svg version="1.1" id="Layer_1" xmlns="http://www.w3.org/2000/svg" xmlns:xlink="http://www.w3.org/1999/xlink" x="0px" y="0px"
	 width="55px" height="56px" viewBox="0 0 55 56" enable-background="new 0 0 55 56" xml:space="preserve">
<rect fill="#1A87E6" stroke="#479EF0" width="55" height="56"/>
<g>
	<path fill="#FFFFFF" d="M32.188,17.574l-1.814,5.536c4.27,1.4,7.137,5.363,7.137,9.86c0,2.772-1.08,5.379-3.039,7.338
		c-1.252,1.253-2.769,2.142-4.426,2.624v-4.559l-5.826,5.947v4.853h2.915c4.327,0,8.396-1.687,11.456-4.745
		c3.062-3.06,4.747-7.129,4.747-11.458C43.337,25.951,38.854,19.761,32.188,17.574z M30.045,35.43V7.303h-5.826v26.098l2.003-1.795
		L30.045,35.43z"/>
	<g>
		<g>
			<g>
				<polygon fill="#061330" points="9.054,42.769 14.604,48.32 16.665,50.381 18.725,48.32 30.104,36.942 25.983,32.824 
					14.604,44.203 18.725,44.203 13.173,38.649 				"/>
			</g>
		</g>
	</g>
</g>
</svg>
